,Company ,Group ,Period ,Inputting Due ,Processing Due ,Approval Due ,Finalising Due ,Output Acceptance Due ,Inputting Actual ,Processing Actual ,Approval Actual ,Finalising Actual ,Output Acceptance Actual ,Payroll Completed On time ,Completion SLA TMF,Completion SLA Client ,Accept/Qualified/Reject ,Reason for qualification / Rejection ,No of Employees ,No of Errors TMF Errors ,No of Client Errors ,Output Rejection ,Rejection Reason ,No of Starters ,No of Leavers 
1,IE-Ice ,Frozen ,1,22/01/2014,26/01/2014,27/01/2014,28/01/2014,29/01/2014,23/01/2014,26/01/2014,27/01/2014,28/01/2014,29/01/2014,YES,100%,100%,Accept ,N/A, 2.00 , -   , -   , No ,N/A, -   , -   
2,SG-Cold ,Frozen ,1,22/01/2014,26/01/2014,27/01/2014,28/01/2014,29/01/2014,22/01/2014,26/01/2014,27/01/2014,28/01/2014,29/01/2014,YES,100%,100%,Accept ,N/A, 21.00 , -   , -   , No ,N/A, -   , -   
3,US-Frost ,Frozen ,1,22/01/2014,26/01/2014,27/01/2014,28/01/2014,29/01/2014,22/01/2014,26/01/2014,27/01/2014,28/01/2014,29/01/2014,YES,100%,100%,Accept ,N/A, 3.00 , -   , -   , No ,N/A, -   , -   
4,BR-Copper ,Copper ,1,22/01/2014,26/01/2014,27/01/2014,28/01/2014,29/01/2014,26/01/2014,28/01/2014,29/01/2014,29/01/2014,30/01/2014,NO,80%,100%,Accept ,N/A, 23.00 , -   , -   , No ,N/A, -   , -   
5,CN-Warm ,Copper ,1,22/01/2014,26/01/2014,27/01/2014,28/01/2014,29/01/2014,22/01/2014,26/01/2014,27/01/2014,28/01/2014,29/01/2014,YES,100%,95%,Accept ,N/A, 11.00 , -   , -   , No ,N/A, -   , -   
6,GB-Sunny ,Copper ,1,22/01/2014,26/01/2014,27/01/2014,28/01/2014,29/01/2014,22/01/2014,26/01/2014,27/01/2014,29/01/2014,29/01/2014,NO,95%,100%,Qualified ,Inputting , 8.00 , -   , 3.00 , No ,N/A, -   , -   
7,NL-Gold ,Frozen ,1,22/01/2014,26/01/2014,27/01/2014,28/01/2014,29/01/2014,22/01/2014,26/01/2014,27/01/2014,28/01/2014,29/01/2014,YES,100%,100%,Accept ,N/A, 2.00 , -   , -   , No ,N/A, -   , -   
8,IE-Ice ,Frozen ,2,22/01/2014,26/01/2014,27/01/2014,28/01/2014,29/01/2014,23/01/2014,26/01/2014,27/01/2014,28/01/2014,29/01/2014,YES,100%,100%,Accept ,N/A, 21.00 , -   , -   , No ,N/A, -   , -   
9,SG-Cold ,Frozen ,2,22/01/2014,26/01/2014,27/01/2014,28/01/2014,29/01/2014,22/01/2014,26/01/2014,27/01/2014,28/01/2014,29/01/2014,YES,100%,100%,Qualified ,Processing , 3.00 , 3.00 , -   , No ,N/A, -   , -   
10,US-Frost ,Frozen ,2,22/01/2014,26/01/2014,27/01/2014,28/01/2014,29/01/2014,22/01/2014,26/01/2014,27/01/2014,28/01/2014,29/01/2014,YES,100%,100%,Accept ,N/A, 21.00 , -   , -   , No ,N/A, -   ,-2.00 
11,BR-Copper ,Copper ,2,22/01/2014,26/01/2014,27/01/2014,28/01/2014,29/01/2014,26/01/2014,28/01/2014,29/01/2014,29/01/2014,30/01/2014,NO,80%,100%,Reject ,Inputting , 11.00 , -   , 2.00 , No ,N/A, -   , -   
12,CN-Warm ,Copper ,2,22/01/2014,26/01/2014,27/01/2014,28/01/2014,29/01/2014,22/01/2014,26/01/2014,27/01/2014,28/01/2014,29/01/2014,YES,100%,95%,Accept ,N/A, 8.00 , -   , -   , No ,N/A, -   , -   
13,GB-Sunny ,Copper ,2,22/01/2014,26/01/2014,27/01/2014,28/01/2014,29/01/2014,22/01/2014,26/01/2014,27/01/2014,29/01/2014,29/01/2014,NO,95%,100%,Accept ,N/A, 2.00 , -   , -   , No ,N/A, -   , -   
14,NL-Gold ,Frozen ,2,22/01/2014,26/01/2014,27/01/2014,28/01/2014,29/01/2014,22/01/2014,26/01/2014,27/01/2014,28/01/2014,29/01/2014,YES,100%,100%,Accept ,N/A, 21.00 , -   , -   , No ,N/A, -   , -   
15,IE-Ice ,Frozen ,3,22/01/2014,26/01/2014,27/01/2014,28/01/2014,29/01/2014,23/01/2014,26/01/2014,27/01/2014,28/01/2014,29/01/2014,YES,100%,100%,Accept ,N/A, 3.00 , -   , -   , No ,N/A, -   , -   
16,SG-Cold ,Frozen ,3,22/01/2014,26/01/2014,27/01/2014,28/01/2014,29/01/2014,22/01/2014,26/01/2014,27/01/2014,28/01/2014,29/01/2014,YES,100%,100%,Qualified ,Processing , 21.00 , 2.00 , -   , No ,N/A, -   , -   
17,US-Frost ,Frozen ,3,22/01/2014,26/01/2014,27/01/2014,28/01/2014,29/01/2014,22/01/2014,26/01/2014,27/01/2014,28/01/2014,29/01/2014,YES,100%,100%,Accept ,N/A, 13.00 , -   , -   , Yes ,Processing Error , 2.00 , -   
18,BR-Copper ,Copper ,3,22/01/2014,26/01/2014,27/01/2014,28/01/2014,29/01/2014,26/01/2014,28/01/2014,29/01/2014,29/01/2014,30/01/2014,NO,80%,100%,Accept ,N/A, 8.00 , -   , -   , No ,N/A, -   , -   
19,CN-Warm ,Copper ,3,22/01/2014,26/01/2014,27/01/2014,28/01/2014,29/01/2014,22/01/2014,26/01/2014,27/01/2014,28/01/2014,29/01/2014,YES,100%,95%,Accept ,N/A, 2.00 , -   , -   , No ,N/A, -   , -   
20,GB-Sunny ,Copper ,3,22/01/2014,26/01/2014,27/01/2014,28/01/2014,29/01/2014,22/01/2014,26/01/2014,27/01/2014,29/01/2014,29/01/2014,NO,95%,100%,Accept ,N/A, 21.00 , -   , -   , No ,N/A, -   , -   
21,NL-Gold ,Frozen ,3,22/01/2014,26/01/2014,27/01/2014,28/01/2014,29/01/2014,22/01/2014,26/01/2014,27/01/2014,28/01/2014,29/01/2014,YES,100%,100%,Accept ,N/A, 3.00 , -   , -   , No ,N/A, -   , -   
22,IE-Ice ,Frozen ,4,22/01/2014,26/01/2014,27/01/2014,28/01/2014,29/01/2014,23/01/2014,26/01/2014,27/01/2014,28/01/2014,29/01/2014,YES,100%,100%,Accept ,N/A, 22.00 , -   , -   , No ,N/A, 1.00 , -   
23,SG-Cold ,Frozen ,4,22/01/2014,26/01/2014,27/01/2014,28/01/2014,29/01/2014,22/01/2014,26/01/2014,27/01/2014,28/01/2014,29/01/2014,YES,100%,100%,Accept ,N/A, 11.00 , -   , -   , No ,N/A, -   ,-2.00 
24,US-Frost ,Frozen ,4,22/01/2014,26/01/2014,27/01/2014,28/01/2014,29/01/2014,22/01/2014,26/01/2014,27/01/2014,28/01/2014,29/01/2014,YES,100%,100%,Accept ,N/A, 8.00 , -   , -   , No ,N/A, -   , -   
25,BR-Copper ,Copper ,4,22/01/2014,26/01/2014,27/01/2014,28/01/2014,29/01/2014,22/01/2014,26/01/2014,27/01/2014,28/01/2014,29/01/2014,YES,80%,100%,Accept ,N/A, 2.00 , -   , -   , No ,N/A, -   , -   
26,CN-Warm ,Copper ,4,22/01/2014,26/01/2014,27/01/2014,28/01/2014,29/01/2014,22/01/2014,26/01/2014,27/01/2014,28/01/2014,29/01/2014,YES,100%,95%,Accept ,N/A, 21.00 , -   , -   , No ,N/A, -   , -   
27,GB-Sunny ,Copper ,4,22/01/2014,26/01/2014,27/01/2014,28/01/2014,29/01/2014,22/01/2014,26/01/2014,27/01/2014,29/01/2014,29/01/2014,NO,95%,100%,Accept ,N/A, 3.00 , -   , -   , No ,N/A, -   , -   
28,NL-Gold ,Frozen ,4,22/01/2014,26/01/2014,27/01/2014,28/01/2014,29/01/2014,22/01/2014,26/01/2014,27/01/2014,28/01/2014,29/01/2014,YES,100%,100%,Accept ,N/A, 23.00 , -   , -   , No ,N/A, 1.00 , -   
29,IE-Ice ,Frozen ,5,22/01/2014,26/01/2014,27/01/2014,28/01/2014,29/01/2014,23/01/2014,26/01/2014,27/01/2014,28/01/2014,29/01/2014,YES,100%,100%,Accept ,N/A, 15.00 , -   , -   , No ,N/A, 4.00 , -   
30,SG-Cold ,Frozen ,5,22/01/2014,26/01/2014,27/01/2014,28/01/2014,29/01/2014,22/01/2014,26/01/2014,27/01/2014,28/01/2014,29/01/2014,YES,100%,100%,Qualified ,Processing , 8.00 , 2.00 , -   , No ,N/A, -   , -   
31,US-Frost ,Frozen ,5,22/01/2014,26/01/2014,27/01/2014,28/01/2014,29/01/2014,22/01/2014,26/01/2014,27/01/2014,28/01/2014,29/01/2014,YES,100%,100%,Accept ,N/A, 2.00 , -   , -   , No ,N/A, -   , -   
32,BR-Copper ,Copper ,5,22/01/2014,26/01/2014,27/01/2014,28/01/2014,29/01/2014,22/01/2014,26/01/2014,27/01/2014,28/01/2014,29/01/2014,YES,80%,100%,Accept ,N/A, 25.00 , -   , -   , Yes ,Inputting Error, 4.00 , -   
33,CN-Warm ,Copper ,5,22/01/2014,26/01/2014,27/01/2014,28/01/2014,29/01/2014,22/01/2014,26/01/2014,27/01/2014,28/01/2014,29/01/2014,YES,100%,95%,Accept ,N/A, 3.00 , -   , -   , No ,N/A, -   , -   
34,GB-Sunny ,Copper ,5,22/01/2014,26/01/2014,27/01/2014,28/01/2014,29/01/2014,22/01/2014,26/01/2014,27/01/2014,29/01/2014,29/01/2014,NO,95%,100%,Accept ,N/A, 23.00 , -   , -   , No ,N/A, -   , -   
35,NL-Gold ,Frozen ,5,22/01/2014,26/01/2014,27/01/2014,28/01/2014,29/01/2014,22/01/2014,26/01/2014,27/01/2014,28/01/2014,29/01/2014,YES,100%,100%,Accept ,N/A, 11.00 , -   , -   , No ,N/A, -   ,-4.00 
36,IE-Ice ,Frozen ,6,22/01/2014,26/01/2014,27/01/2014,28/01/2014,29/01/2014,23/01/2014,26/01/2014,27/01/2014,28/01/2014,29/01/2014,YES,100%,100%,Accept ,N/A, 8.00 , -   , -   , No ,N/A, -   , -   
37,SG-Cold ,Frozen ,6,22/01/2014,26/01/2014,27/01/2014,28/01/2014,29/01/2014,22/01/2014,26/01/2014,27/01/2014,28/01/2014,29/01/2014,YES,100%,100%,Accept ,N/A, 2.00 , -   , -   , No ,N/A, -   , -   
38,US-Frost ,Frozen ,6,22/01/2014,26/01/2014,27/01/2014,28/01/2014,29/01/2014,22/01/2014,26/01/2014,27/01/2014,28/01/2014,29/01/2014,YES,100%,100%,Accept ,N/A, 21.00 , -   , -   , No ,N/A, -   ,-4.00 
39,BR-Copper ,Copper ,6,22/01/2014,26/01/2014,27/01/2014,28/01/2014,29/01/2014,26/01/2014,28/01/2014,29/01/2014,29/01/2014,30/01/2014,NO,80%,100%,Accept ,N/A, 3.00 , -   , -   , No ,N/A, -   , -   
40,CN-Warm ,Copper ,6,22/01/2014,26/01/2014,27/01/2014,28/01/2014,29/01/2014,22/01/2014,26/01/2014,27/01/2014,28/01/2014,29/01/2014,YES,100%,95%,Accept ,N/A, 23.00 , -   , -   , No ,N/A, -   , -   
41,GB-Sunny ,Copper ,6,22/01/2014,26/01/2014,27/01/2014,28/01/2014,29/01/2014,22/01/2014,26/01/2014,27/01/2014,29/01/2014,29/01/2014,NO,95%,100%,Accept ,N/A, 11.00 , -   , -   , No ,N/A, -   , -   
42,NL-Gold ,Frozen ,6,22/01/2014,26/01/2014,27/01/2014,28/01/2014,29/01/2014,22/01/2014,26/01/2014,27/01/2014,28/01/2014,29/01/2014,YES,100%,100%,Reject ,Processing , 8.00 , 1.00 , 1.00 , No ,N/A, -   , -   
