period	Company Name	EE ID	Employee Name	Date of Birth	Start Date	Leave Date	Department	Cost Center	FTE	Job Title	Gender	Marital Status	Address 1	Address 2	Address 3	Postcode	Country	Basic Salary	Shift Allowance	Unpaid Leave	Salary Advance	EE SOCSO	EE Monthly Tax Deductions	EE EPF	Yearly Bonus	EE Referral Payout	Sales Commission	Unpaid Leave (1)	Salary Advance (1)	ER SOCSO	ER EPF	Net Salary	comp_id	Statutory Pay	Overtime	Total Taxable Salary	EE Other Net Deductions	EE Other Net Additions	ER Social Security/Insurances	ER Other Additions (taxable)	ER Other Deductions (taxable)	ER Other Additions (non-taxable)	ER Other Deductions (non-taxable)	Benefits in Kind	Region	Group
201401	Warm Ltd	40938	employee 1	28548	40876		HUMAN RESOURCES	30180835	1	RECEPTIONIST	FEMALE	MARRIED	37-2-1 VICTORIA HEIGHTS	HILIR PAYA TERUBONG 2	RELAU, PENANG	11900	CN	2622	0	0	0	13.25	0	291	0	0	0	0	0	46.35	344	2317.75	cn_warm_ltd												EMEA	Frozen Group
201401	Warm Ltd	40945	employee 2	28794	40882		CUSTOMER CARE	30180853	0.5	CUSTOMER CARE REPRESENTATIVE	FEMALE	MARRIED	NO. 9 SOLOK SG  BATU	TAMAN TELUK KUMBAR	BAYAN LEPAS , PENANG	11920	CN	3970.4	0	0	0	14.75	58.6	438	0	0	0	0	0	51.65	518	3459.05	cn_warm_ltd												EMEA	Frozen Group
201401	Warm Ltd	40946	employee 3	29645	40882		CUSTOMER CARE	30180853	1	CUSTOMER CARE REPRESENTATIVE	FEMALE	MARRIED	26 JALAN CONCORD 15	TANJONG BUNGAH	PULAU PINANG	11200	CN	3970.4	0	0	0	14.75	58.6	438	0	0	0	0	0	51.65	518	3459.05	cn_warm_ltd												EMEA	Frozen Group
201401	Warm Ltd	40947	employee 4	27240	40882		CUSTOMER CARE	30180853	0.5	CUSTOMER CARE REPRESENTATIVE	FEMALE	DIVORCED	1636 JALAN PADANG BANGGALI	TAMAN AIR TAWAR INDAH	BUTTERWORTH	13050	CN	4482.24	0	0	0	14.75	158.2	495	0	0	0	0	0	51.65	585	3814.29	cn_warm_ltd												EMEA	Frozen Group
201401	Warm Ltd	40954	employee 5	29939	40882		FINANCE	30180606	1	ACCOUNTANT	FEMALE	MARRIED	GRAND VIEW APARTMENT	31A-7-5 TANJUNG TOKONG	PENANG	10470	CN	3900.5	0	0	0	14.75	49.8	432	0	0	0	0	0	51.65	510	3403.95	cn_warm_ltd												EMEA	Frozen Group
201401	Warm Ltd	41046	employee 6	29546	40917		ORDER MANAGEMENT	30181036	1	DELIVERY COORDINATOR SUPERVISOR	MALE	SINGLE	9 LORONG PERMAI 1	TAMAN BUKIT GAMBIR,	GELUGOR	11700	CN	5785.45	400	0	0	14.75	383.55	682	0	0	0	0	0	51.65	744	5105.15	cn_warm_ltd												EMEA	Frozen Group
201401	Warm Ltd	41048	employee 7	30440	40917		ORDER MANAGEMENT	30181036	1	DELIVERY COORDINATOR	MALE	SINGLE	20-7-12A HILIR PAYA TERUBONG 1	TAMAN SERI SARI RELAU	BAYAN LEPAS, PENANG	11900	CN	4124.9	400	0	0	14.75	146.75	500	0	0	0	0	0	51.65	591	3863.4	cn_warm_ltd												EMEA	Frozen Group
201401	Warm Ltd	41139	employee 8	30938	40917		II & O SHIPPING & COMMERCE	30180038	1	OPERATIONS SUPERVISOR	MALE	MARRIED	19E KG PAYA SURI, SEMELING	BEDONG. KEDAH		8100	CN	6180	0	0	0	14.75	382.5	682	0	0	0	0	0	51.65	744	5100.75	cn_warm_ltd												EMEA	Frozen Group
201401	Warm Ltd	41140	employee 9	31333	40917		II & O SHIPPING & COMMERCE	30180038	1	DATA ASSOCIATE	MALE	SINGLE	BLK 11-10-11, LINTANG MACALLUM DUA	PENANG		10300	CN	4686.3	0	0	0	14.75	157.05	517	0	0	0	0	0	51.65	611	3997.5	cn_warm_ltd												EMEA	Frozen Group
201401	Warm Ltd	41141	employee 10	28644	40917		II & O SHIPPING & COMMERCE	30180038	1	OPERATIONS SUPERVISOR	MALE	MARRIED	10-11, PARK VIEW TOWER,	JALAN HARBOUR PLACE,	BUTTERWORTH, PENANG	12100	CN	6180	0	0	0	14.75	382.5	682	0	0	0	0	0	51.65	744	5100.75	cn_warm_ltd												EMEA	Frozen Group
201401	Warm Ltd	41142	employee 11	31876	40917		II & O SHIPPING & COMMERCE	30180038	1	DATA ASSOCIATE	FEMALE	SINGLE	93 JALAN 4,TAMAN GUAR PERAHU	BUKIT MERTAJAM	PULAU PINANG	14400	CN	4686.3	0	0	0	14.75	157.05	517	0	0	0	0	0	51.65	611	3997.5	cn_warm_ltd												EMEA	Frozen Group
201401	Warm Ltd	41143	employee 12	30829	40917		II & O SHIPPING & COMMERCE	30180038	1	DATA ASSOCIATE	MALE	SINGLE	361 JALAN JELUTONG	PENANG		11600	CN	4950	0	0	0	14.75	186.05	546	0	0	0	0	0	51.65	645	4203.2	cn_warm_ltd												EMEA	Frozen Group
201401	Warm Ltd	41144	employee 13	29384	40917		II & O SHIPPING & COMMERCE	30180038	1	DATA ASSOCIATE	FEMALE	SINGLE	NO. 1, LOT 232, KG SEMARIANG LOT	KUCHING	SARAWAK	93050	CN	4711.95	0	0	0	14.75	159.85	520	0	0	0	0	0	51.65	614	4017.35	cn_warm_ltd												EMEA	Frozen Group
201401	Warm Ltd	41145	employee 14	31836	40917		II & O SHIPPING & COMMERCE	30180038	1	DATA ASSOCIATE	FEMALE	SINGLE	NO. 1 SCOTLAND CLOSE	PENANG		10450	CN	4711.95	0	0	0	14.75	159.85	520	0	0	0	0	0	51.65	614	4017.35	cn_warm_ltd												EMEA	Frozen Group
201401	Warm Ltd	41264	employee 15	30891	40947		EDIT & DESIGN	30185326	1	IMAGE ARCHIVIST	FEMALE	SINGLE	39-13-31, KRYSTAL HEIGHT,	LORONG DELIMA 14, ISLAND GLADES,	GELUGOR, PENANG.	11700	CN	4683	0	0	0	14.75	156.7	517	0	0	0	0	0	51.65	611	3994.55	cn_warm_ltd												EMEA	Frozen Group
201401	Warm Ltd	41266	employee 16	30310	40947		ORDER MANAGEMENT	30181036	1	DELIVERY COORDINATOR	FEMALE	SINGLE	1-06, MELOR APARTMENT,	TAMAN MELOR,	BAGAN JERMAL, PENANG	12300	CN	0	0	0	0	0	0	0	0	0	0	0	0	0	0	0	cn_warm_ltd												EMEA	Frozen Group
201401	Warm Ltd	41267	employee 17	25112	40947		FINANCE	30180606	1	FINANCE DIRECTOR	FEMALE	MARRIED	33, PERSIARAN PANTAI JEREJAK 11,	SUNGAI NIBONG, PENANG.		11900	CN	24088.2	0	0	0	14.75	4882.1	2650	0	0	0	0	0	51.65	2891	16541.35	cn_warm_ltd												EMEA	Frozen Group
201401	Warm Ltd	41361	employee 18	29509	40959		IT INFRASTRUCTURE	30181361	1	ETL DEVELOPER	MALE	MARRIED	1-7-6, THE SUMMER PLACE,	LEBUH SUNGAI PINANG 8,	JELUTONG, PENANG	11600	CN	3831.17	0	0	0	14.75	85.7	423	0	0	0	0	0	51.65	500	3307.72	cn_warm_ltd												EMEA	Frozen Group
201401	Warm Ltd	41388	employee 19	29413	40973		ORDER MANAGEMENT	30181036	1	DELIVERY COORDINATOR	FEMALE	MARRIED	18-16-21, TAMAN UTARA,	BATU UBAN,	PENANG.	11700	CN	0	0	0	0	0	0	0	0	0	0	0	0	0	0	0	cn_warm_ltd												EMEA	Frozen Group
201401	Warm Ltd	41411	employee 20	28567	40973	30/5/2014	HUMAN RESOURCES	30180908	1	TALENT ACQUISITION ACCOUNT MANAGER	FEMALE	SINGLE	2-G-1, JALAN HAJI AHMAD,	TAMAN PUSAKA,	PENANG	11600	CN	12118.5	0	0	0	14.75	1813.25	1342	0	0	0	0	0	51.65	1464	8948.5	cn_warm_ltd												EMEA	Frozen Group
201401	Warm Ltd	41461	employee 21	30662	40988	30/5/2014	IT INFRASTRUCTURE	30181361	1	ETL DEVELOPER	MALE	SINGLE	75, LENGKOK SIAKAP 1,	SEBERANG JAYA,	PRAI, PENANG	13700	CN	3397.35	0	0	0	14.75	28.05	374	0	0	0	0	0	51.65	442	2980.55	cn_warm_ltd												EMEA	Frozen Group
201401	Warm Ltd	41486	employee 22	29252	40994	30/5/2014	ORDER MANAGEMENT	30181036	1	ORDER PROCESSING SPECIALIST	FEMALE	MARRIED	NO. 17, LORONG SINTAR INDAH 8,	TAMAN SINTAR INDAH,	NIBONG TEBAL	14300	CN	0	0	0	0	0	0	0	0	0	0	0	0	0	0	0	cn_warm_ltd												EMEA	Frozen Group
201401	Warm Ltd	41487	employee 23	30369	40994	30/5/2014	PRICING	30180978	1	PRICING ANALYST	FEMALE	MARRIED	2A-16-7, REGENCY HEIGHTS,	CANGKAT KENARI,	SG. ARA, PENANG	11900	CN	3926.35	0	0	0	14.75	51.35	434	0	0	0	0	0	51.65	513	3426.25	cn_warm_ltd												EMEA	Frozen Group
201402	Warm Ltd	40938	employee 1	28548	40876		HUMAN RESOURCES	30180835	1	RECEPTIONIST	FEMALE	MARRIED	37-2-1 VICTORIA HEIGHTS	HILIR PAYA TERUBONG 2	RELAU, PENANG	11900	CN	2622	0	0	0	13.25	0	291	0	0	0	0	0	46.35	344	2317.75	cn_warm_ltd												EMEA	Frozen Group
201402	Warm Ltd	40945	employee 2	28794	40882		CUSTOMER CARE	30180853	1	CUSTOMER CARE REPRESENTATIVE	FEMALE	MARRIED	NO. 9 SOLOK SG  BATU	TAMAN TELUK KUMBAR	BAYAN LEPAS , PENANG	11920	CN	3970.4	0	0	0	14.75	58.6	438	0	0	0	0	0	51.65	518	3459.05	cn_warm_ltd												EMEA	Frozen Group
201402	Warm Ltd	40946	employee 3	29645	40882		CUSTOMER CARE	30180853	1	CUSTOMER CARE REPRESENTATIVE	FEMALE	MARRIED	26 JALAN CONCORD 15	TANJONG BUNGAH	PULAU PINANG	11200	CN	3970.4	0	0	0	14.75	58.6	438	0	0	0	0	0	51.65	518	3459.05	cn_warm_ltd												EMEA	Frozen Group
201402	Warm Ltd	40947	employee 4	27240	40882		CUSTOMER CARE	30180853	1	CUSTOMER CARE REPRESENTATIVE	FEMALE	DIVORCED	1636 JALAN PADANG BANGGALI	TAMAN AIR TAWAR INDAH	BUTTERWORTH	13050	CN	4482.24	0	0	0	14.75	158.2	495	0	0	0	0	0	51.65	585	3814.29	cn_warm_ltd												EMEA	Frozen Group
201402	Warm Ltd	40954	employee 5	29939	40882		FINANCE	30180606	1	ACCOUNTANT	FEMALE	MARRIED	GRAND VIEW APARTMENT	31A-7-5 TANJUNG TOKONG	PENANG	10470	CN	3900.5	0	0	0	14.75	49.8	432	0	0	0	0	0	51.65	510	3403.95	cn_warm_ltd												EMEA	Frozen Group
201402	Warm Ltd	41046	employee 6	29546	40917		ORDER MANAGEMENT	30181036	1	DELIVERY COORDINATOR SUPERVISOR	MALE	SINGLE	9 LORONG PERMAI 1	TAMAN BUKIT GAMBIR,	GELUGOR	11700	CN	5785.45	400	0	0	14.75	383.55	682	0	0	0	0	0	51.65	744	5105.15	cn_warm_ltd												EMEA	Frozen Group
201402	Warm Ltd	41048	employee 7	30440	40917		ORDER MANAGEMENT	30181036	1	DELIVERY COORDINATOR	MALE	SINGLE	20-7-12A HILIR PAYA TERUBONG 1	TAMAN SERI SARI RELAU	BAYAN LEPAS, PENANG	11900	CN	4124.9	400	0	0	14.75	146.75	500	0	0	0	0	0	51.65	591	3863.4	cn_warm_ltd												EMEA	Frozen Group
201401	Warm Ltd	40938	employee 1	2/27/1978	11/29/2011		HUMAN RESOURCES	30180835	1	RECEPTIONIST	FEMALE	MARRIED	37-2-1 VICTORIA HEIGHTS	HILIR PAYA TERUBONG 2	RELAU, PENANG	11900	CN	2,622	-	-	-	13	-	291	-	-	-	-	-	46	344	2,318													EMEA	Frozen Group
201401	Warm Ltd	40945	employee 2	10/31/1978	12/5/2011		CUSTOMER CARE	30180853	0.5	CUSTOMER CARE REPRESENTATIVE	FEMALE	MARRIED	NO. 9 SOLOK SG  BATU	TAMAN TELUK KUMBAR	BAYAN LEPAS , PENANG	11920	CN	3,970	-	-	-	15	59	438	-	-	-	-	-	52	518	3,459													EMEA	Frozen Group
201401	Warm Ltd	40946	employee 3	2/28/1981	12/5/2011		CUSTOMER CARE	30180853	1	CUSTOMER CARE REPRESENTATIVE	FEMALE	MARRIED	26 JALAN CONCORD 15	TANJONG BUNGAH	PULAU PINANG	11200	CN	3,970	-	-	-	15	59	438	-	-	-	-	-	52	518	3,459													EMEA	Frozen Group
201401	Warm Ltd	40947	employee 4	7/30/1974	12/5/2011		CUSTOMER CARE	30180853	0.5	CUSTOMER CARE REPRESENTATIVE	FEMALE	DIVORCED	1636 JALAN PADANG BANGGALI	TAMAN AIR TAWAR INDAH	BUTTERWORTH	13050	CN	4,482	-	-	-	15	158	495	-	-	-	-	-	52	585	3,814													EMEA	Frozen Group
201401	Warm Ltd	40954	employee 5	12/19/1981	12/5/2011		FINANCE	30180606	1	ACCOUNTANT	FEMALE	MARRIED	GRAND VIEW APARTMENT	31A-7-5 TANJUNG TOKONG	PENANG	10470	CN	3,901	-	-	-	15	50	432	-	-	-	-	-	52	510	3,404													EMEA	Frozen Group
201401	Warm Ltd	41046	employee 6	11/21/1980	1/9/2012		ORDER MANAGEMENT	30181036	1	DELIVERY COORDINATOR SUPERVISOR	MALE	SINGLE	9 LORONG PERMAI 1	TAMAN BUKIT GAMBIR,	GELUGOR	11700	CN	5,785	400	-	-	15	384	682	-	-	-	-	-	52	744	5,105													EMEA	Frozen Group
201401	Warm Ltd	41048	employee 7	5/4/1983	1/9/2012		ORDER MANAGEMENT	30181036	1	DELIVERY COORDINATOR	MALE	SINGLE	20-7-12A HILIR PAYA TERUBONG 1	TAMAN SERI SARI RELAU	BAYAN LEPAS, PENANG	11900	CN	4,125	400	-	-	15	147	500	-	-	-	-	-	52	591	3,863													EMEA	Frozen Group
201401	Warm Ltd	41139	employee 8	9/13/1984	1/9/2012		II & O SHIPPING & COMMERCE	30180038	1	OPERATIONS SUPERVISOR	MALE	MARRIED	19E KG PAYA SURI, SEMELING	BEDONG. KEDAH		8100	CN	6,180	-	-	-	15	383	682	-	-	-	-	-	52	744	5,101													EMEA	Frozen Group
201401	Warm Ltd	41140	employee 9	10/13/1985	1/9/2012		II & O SHIPPING & COMMERCE	30180038	1	DATA ASSOCIATE	MALE	SINGLE	BLK 11-10-11, LINTANG MACALLUM DUA	PENANG		10300	CN	4,686	-	-	-	15	157	517	-	-	-	-	-	52	611	3,998													EMEA	Frozen Group
201401	Warm Ltd	41141	employee 10	6/3/1978	1/9/2012		II & O SHIPPING & COMMERCE	30180038	1	OPERATIONS SUPERVISOR	MALE	MARRIED	10-11, PARK VIEW TOWER,	JALAN HARBOUR PLACE,	BUTTERWORTH, PENANG	12100	CN	6,180	-	-	-	15	383	682	-	-	-	-	-	52	744	5,101													EMEA	Frozen Group
201401	Warm Ltd	41142	employee 11	4/9/1987	1/9/2012		II & O SHIPPING & COMMERCE	30180038	1	DATA ASSOCIATE	FEMALE	SINGLE	93 JALAN 4,TAMAN GUAR PERAHU	BUKIT MERTAJAM	PULAU PINANG	14400	CN	4,686	-	-	-	15	157	517	-	-	-	-	-	52	611	3,998													EMEA	Frozen Group
201401	Warm Ltd	41143	employee 12	5/27/1984	1/9/2012		II & O SHIPPING & COMMERCE	30180038	1	DATA ASSOCIATE	MALE	SINGLE	361 JALAN JELUTONG	PENANG		11600	CN	4,950	-	-	-	15	186	546	-	-	-	-	-	52	645	4,203													EMEA	Frozen Group
201401	Warm Ltd	41144	employee 13	6/12/1980	1/9/2012		II & O SHIPPING & COMMERCE	30180038	1	DATA ASSOCIATE	FEMALE	SINGLE	NO. 1, LOT 232, KG SEMARIANG LOT	KUCHING	SARAWAK	93050	CN	4,712	-	-	-	15	160	520	-	-	-	-	-	52	614	4,017													EMEA	Frozen Group
201401	Warm Ltd	41145	employee 14	2/28/1987	1/9/2012		II & O SHIPPING & COMMERCE	30180038	1	DATA ASSOCIATE	FEMALE	SINGLE	NO. 1 SCOTLAND CLOSE	PENANG		10450	CN	4,712	-	-	-	15	160	520	-	-	-	-	-	52	614	4,017													EMEA	Frozen Group
201401	Warm Ltd	41264	employee 15	7/28/1984	2/8/2012		EDIT & DESIGN	30185326	1	IMAGE ARCHIVIST	FEMALE	SINGLE	39-13-31, KRYSTAL HEIGHT,	LORONG DELIMA 14, ISLAND GLADES,	GELUGOR, PENANG.	11700	CN	4,683	-	-	-	15	157	517	-	-	-	-	-	52	611	3,995													EMEA	Frozen Group
201401	Warm Ltd	41266	employee 16	12/25/1982	2/8/2012		ORDER MANAGEMENT	30181036	1	DELIVERY COORDINATOR	FEMALE	SINGLE	1-06, MELOR APARTMENT,	TAMAN MELOR,	BAGAN JERMAL, PENANG	12300	CN	-	-	-	-	-	-	-	-	-	-	-	-	-	-	-													EMEA	Frozen Group
201401	Warm Ltd	41267	employee 17	10/1/1968	2/8/2012		FINANCE	30180606	1	FINANCE DIRECTOR	FEMALE	MARRIED	33, PERSIARAN PANTAI JEREJAK 11,	SUNGAI NIBONG, PENANG.		11900	CN	24,088	-	-	-	15	4,882	2,650	-	-	-	-	-	52	2,891	16,541													EMEA	Frozen Group
201401	Warm Ltd	41361	employee 18	10/15/1980	2/20/2012		IT INFRASTRUCTURE	30181361	1	ETL DEVELOPER	MALE	MARRIED	1-7-6, THE SUMMER PLACE,	LEBUH SUNGAI PINANG 8,	JELUTONG, PENANG	11600	CN	3,831	-	-	-	15	86	423	-	-	-	-	-	52	500	3,308													EMEA	Frozen Group
201401	Warm Ltd	41388	employee 19	7/11/1980	3/5/2012		ORDER MANAGEMENT	30181036	1	DELIVERY COORDINATOR	FEMALE	MARRIED	18-16-21, TAMAN UTARA,	BATU UBAN,	PENANG.	11700	CN	-	-	-	-	-	-	-	-	-	-	-	-	-	-	-													EMEA	Frozen Group
201401	Warm Ltd	41411	employee 20	3/18/1978	3/5/2012	30/5/2014	HUMAN RESOURCES	30180908	1	TALENT ACQUISITION ACCOUNT MANAGER	FEMALE	SINGLE	2-G-1, JALAN HAJI AHMAD,	TAMAN PUSAKA,	PENANG	11600	CN	12,119	-	-	-	15	1,813	1,342	-	-	-	-	-	52	1,464	8,949													EMEA	Frozen Group
201401	Warm Ltd	41461	employee 21	12/12/1983	3/20/2012	30/5/2014	IT INFRASTRUCTURE	30181361	1	ETL DEVELOPER	MALE	SINGLE	75, LENGKOK SIAKAP 1,	SEBERANG JAYA,	PRAI, PENANG	13700	CN	3,397	-	-	-	15	28	374	-	-	-	-	-	52	442	2,981													EMEA	Frozen Group
201401	Warm Ltd	41486	employee 22	2/1/1980	3/26/2012	30/5/2014	ORDER MANAGEMENT	30181036	1	ORDER PROCESSING SPECIALIST	FEMALE	MARRIED	NO. 17, LORONG SINTAR INDAH 8,	TAMAN SINTAR INDAH,	NIBONG TEBAL	14300	CN	-	-	-	-	-	-	-	-	-	-	-	-	-	-	-													EMEA	Frozen Group
201401	Warm Ltd	41487	employee 23	2/22/1983	3/26/2012	30/5/2014	PRICING	30180978	1	PRICING ANALYST	FEMALE	MARRIED	2A-16-7, REGENCY HEIGHTS,	CANGKAT KENARI,	SG. ARA, PENANG	11900	CN	3,926	-	-	-	15	51	434	-	-	-	-	-	52	513	3,426													EMEA	Frozen Group
201402	Warm Ltd	40938	employee 1	2/27/1978	11/29/2011		HUMAN RESOURCES	30180835	1	RECEPTIONIST	FEMALE	MARRIED	37-2-1 VICTORIA HEIGHTS	HILIR PAYA TERUBONG 2	RELAU, PENANG	11900	CN	2,648	-	-	-	13	-	294	-	-	-	-	-	47	347	2,341													EMEA	Frozen Group
201402	Warm Ltd	40945	employee 2	10/31/1978	12/5/2011		CUSTOMER CARE	30180853	0.5	CUSTOMER CARE REPRESENTATIVE	FEMALE	MARRIED	NO. 9 SOLOK SG  BATU	TAMAN TELUK KUMBAR	BAYAN LEPAS , PENANG	11920	CN	4,010	-	-	-	15	59	442	-	-	-	-	-	52	523	3,494													EMEA	Frozen Group
201402	Warm Ltd	40946	employee 3	2/28/1981	12/5/2011		CUSTOMER CARE	30180853	1	CUSTOMER CARE REPRESENTATIVE	FEMALE	MARRIED	26 JALAN CONCORD 15	TANJONG BUNGAH	PULAU PINANG	11200	CN	4,010	-	-	-	15	59	442	-	-	-	-	-	52	523	3,494													EMEA	Frozen Group
201402	Warm Ltd	40947	employee 4	7/30/1974	12/5/2011		CUSTOMER CARE	30180853	0.5	CUSTOMER CARE REPRESENTATIVE	FEMALE	DIVORCED	1636 JALAN PADANG BANGGALI	TAMAN AIR TAWAR INDAH	BUTTERWORTH	13050	CN	4,527	-	-	-	15	160	500	-	-	-	-	-	52	591	3,852													EMEA	Frozen Group
201402	Warm Ltd	40954	employee 5	12/19/1981	12/5/2011		FINANCE	30180606	1	ACCOUNTANT	FEMALE	MARRIED	GRAND VIEW APARTMENT	31A-7-5 TANJUNG TOKONG	PENANG	10470	CN	3,940	-	-	-	15	50	436	-	-	-	-	-	52	515	3,438													EMEA	Frozen Group
201402	Warm Ltd	41046	employee 6	11/21/1980	1/9/2012		ORDER MANAGEMENT	30181036	1	DELIVERY COORDINATOR SUPERVISOR	MALE	SINGLE	9 LORONG PERMAI 1	TAMAN BUKIT GAMBIR,	GELUGOR	11700	CN	5,843	404	-	-	15	387	689	-	-	-	-	-	52	751	5,156													EMEA	Frozen Group
201402	Warm Ltd	41048	employee 7	5/4/1983	1/9/2012		ORDER MANAGEMENT	30181036	1	DELIVERY COORDINATOR	MALE	SINGLE	20-7-12A HILIR PAYA TERUBONG 1	TAMAN SERI SARI RELAU	BAYAN LEPAS, PENANG	11900	CN	4,166	404	-	-	15	148	505	-	-	-	-	-	52	597	3,902													EMEA	Frozen Group
201402	Warm Ltd	41139	employee 8	9/13/1984	1/9/2012		II & O SHIPPING & COMMERCE	30180038	1	OPERATIONS SUPERVISOR	MALE	MARRIED	19E KG PAYA SURI, SEMELING	BEDONG. KEDAH		8100	CN	6,242	-	-	-	15	386	689	-	-	-	-	-	52	751	5,152													EMEA	Frozen Group
201402	Warm Ltd	41140	employee 9	10/13/1985	1/9/2012		II & O SHIPPING & COMMERCE	30180038	1	DATA ASSOCIATE	MALE	SINGLE	BLK 11-10-11, LINTANG MACALLUM DUA	PENANG		10300	CN	4,733	-	-	-	15	159	522	-	-	-	-	-	52	617	4,038													EMEA	Frozen Group
201402	Warm Ltd	41141	employee 10	6/3/1978	1/9/2012		II & O SHIPPING & COMMERCE	30180038	1	OPERATIONS SUPERVISOR	MALE	MARRIED	10-11, PARK VIEW TOWER,	JALAN HARBOUR PLACE,	BUTTERWORTH, PENANG	12100	CN	6,242	-	-	-	15	386	689	-	-	-	-	-	52	751	5,152													EMEA	Frozen Group
201402	Warm Ltd	41142	employee 11	4/9/1987	1/9/2012		II & O SHIPPING & COMMERCE	30180038	1	DATA ASSOCIATE	FEMALE	SINGLE	93 JALAN 4,TAMAN GUAR PERAHU	BUKIT MERTAJAM	PULAU PINANG	14400	CN	4,733	-	-	-	15	159	522	-	-	-	-	-	52	617	4,038													EMEA	Frozen Group
201402	Warm Ltd	41143	employee 12	5/27/1984	1/9/2012		II & O SHIPPING & COMMERCE	30180038	1	DATA ASSOCIATE	MALE	SINGLE	361 JALAN JELUTONG	PENANG		11600	CN	5,000	-	-	-	15	188	551	-	-	-	-	-	52	651	4,245													EMEA	Frozen Group
201402	Warm Ltd	41144	employee 13	6/12/1980	1/9/2012		II & O SHIPPING & COMMERCE	30180038	1	DATA ASSOCIATE	FEMALE	SINGLE	NO. 1, LOT 232, KG SEMARIANG LOT	KUCHING	SARAWAK	93050	CN	4,759	-	-	-	15	161	525	-	-	-	-	-	52	620	4,058													EMEA	Frozen Group
201402	Warm Ltd	41145	employee 14	2/28/1987	1/9/2012		II & O SHIPPING & COMMERCE	30180038	1	DATA ASSOCIATE	FEMALE	SINGLE	NO. 1 SCOTLAND CLOSE	PENANG		10450	CN	4,759	-	-	-	15	161	525	-	-	-	-	-	52	620	4,058													EMEA	Frozen Group
201402	Warm Ltd	41264	employee 15	7/28/1984	2/8/2012		EDIT & DESIGN	30185326	1	IMAGE ARCHIVIST	FEMALE	SINGLE	39-13-31, KRYSTAL HEIGHT,	LORONG DELIMA 14, ISLAND GLADES,	GELUGOR, PENANG.	11700	CN	4,730	-	-	-	15	158	522	-	-	-	-	-	52	617	4,035													EMEA	Frozen Group
201402	Warm Ltd	41266	employee 16	12/25/1982	2/8/2012		ORDER MANAGEMENT	30181036	1	DELIVERY COORDINATOR	FEMALE	SINGLE	1-06, MELOR APARTMENT,	TAMAN MELOR,	BAGAN JERMAL, PENANG	12300	CN	-	-	-	-	-	-	-	-	-	-	-	-	-	-	-													EMEA	Frozen Group
201402	Warm Ltd	41267	employee 17	10/1/1968	2/8/2012		FINANCE	30180606	1	FINANCE DIRECTOR	FEMALE	MARRIED	33, PERSIARAN PANTAI JEREJAK 11,	SUNGAI NIBONG, PENANG.		11900	CN	24,329	-	-	-	15	4,931	2,677	-	-	-	-	-	52	2,920	16,707													EMEA	Frozen Group
201402	Warm Ltd	41361	employee 18	10/15/1980	2/20/2012		IT INFRASTRUCTURE	30181361	1	ETL DEVELOPER	MALE	MARRIED	1-7-6, THE SUMMER PLACE,	LEBUH SUNGAI PINANG 8,	JELUTONG, PENANG	11600	CN	3,870	-	-	-	15	87	427	-	-	-	-	-	52	505	3,341													EMEA	Frozen Group
201402	Warm Ltd	41388	employee 19	7/11/1980	3/5/2012		ORDER MANAGEMENT	30181036	1	DELIVERY COORDINATOR	FEMALE	MARRIED	18-16-21, TAMAN UTARA,	BATU UBAN,	PENANG.	11700	CN	-	-	-	-	-	-	-	-	-	-	-	-	-	-	-													EMEA	Frozen Group
201402	Warm Ltd	41411	employee 20	3/18/1978	3/5/2012	30/5/2014	HUMAN RESOURCES	30180908	1	TALENT ACQUISITION ACCOUNT MANAGER	FEMALE	SINGLE	2-G-1, JALAN HAJI AHMAD,	TAMAN PUSAKA,	PENANG	11600	CN	12,240	-	-	-	15	1,831	1,355	-	-	-	-	-	52	1,479	9,038													EMEA	Frozen Group
201402	Warm Ltd	41461	employee 21	12/12/1983	3/20/2012	30/5/2014	IT INFRASTRUCTURE	30181361	1	ETL DEVELOPER	MALE	SINGLE	75, LENGKOK SIAKAP 1,	SEBERANG JAYA,	PRAI, PENANG	13700	CN	3,431	-	-	-	15	28	378	-	-	-	-	-	52	446	3,010													EMEA	Frozen Group
201402	Warm Ltd	41486	employee 22	2/1/1980	3/26/2012	30/5/2014	ORDER MANAGEMENT	30181036	1	ORDER PROCESSING SPECIALIST	FEMALE	MARRIED	NO. 17, LORONG SINTAR INDAH 8,	TAMAN SINTAR INDAH,	NIBONG TEBAL	14300	CN	-	-	-	-	-	-	-	-	-	-	-	-	-	-	-													EMEA	Frozen Group
201402	Warm Ltd	41487	employee 23	2/22/1983	3/26/2012	30/5/2014	PRICING	30180978	1	PRICING ANALYST	FEMALE	MARRIED	2A-16-7, REGENCY HEIGHTS,	CANGKAT KENARI,	SG. ARA, PENANG	11900	CN	3,966	-	-	-	15	52	438	-	-	-	-	-	52	518	3,461													EMEA	Frozen Group
201403	Warm Ltd	40938	employee 1	2/27/1978	11/29/2011		HUMAN RESOURCES	30180835	1	RECEPTIONIST	FEMALE	MARRIED	37-2-1 VICTORIA HEIGHTS	HILIR PAYA TERUBONG 2	RELAU, PENANG	11900	CN	2,675	-	-	-	14	-	297	-	-	-	-	-	47	351	2,364													EMEA	Frozen Group
201403	Warm Ltd	40945	employee 2	10/31/1978	12/5/2011		CUSTOMER CARE	30180853	0.5	CUSTOMER CARE REPRESENTATIVE	FEMALE	MARRIED	NO. 9 SOLOK SG  BATU	TAMAN TELUK KUMBAR	BAYAN LEPAS , PENANG	11920	CN	4,050	-	-	-	15	60	447	-	-	-	-	-	53	528	3,529													EMEA	Frozen Group
201403	Warm Ltd	40946	employee 3	2/28/1981	12/5/2011		CUSTOMER CARE	30180853	1	CUSTOMER CARE REPRESENTATIVE	FEMALE	MARRIED	26 JALAN CONCORD 15	TANJONG BUNGAH	PULAU PINANG	11200	CN	4,050	-	-	-	15	60	447	-	-	-	-	-	53	528	3,529													EMEA	Frozen Group
201403	Warm Ltd	40947	employee 4	7/30/1974	12/5/2011		CUSTOMER CARE	30180853	0.5	CUSTOMER CARE REPRESENTATIVE	FEMALE	DIVORCED	1636 JALAN PADANG BANGGALI	TAMAN AIR TAWAR INDAH	BUTTERWORTH	13050	CN	4,572	-	-	-	15	161	505	-	-	-	-	-	53	597	3,891													EMEA	Frozen Group
201403	Warm Ltd	40954	employee 5	12/19/1981	12/5/2011		FINANCE	30180606	1	ACCOUNTANT	FEMALE	MARRIED	GRAND VIEW APARTMENT	31A-7-5 TANJUNG TOKONG	PENANG	10470	CN	3,979	-	-	-	15	51	441	-	-	-	-	-	53	520	3,472													EMEA	Frozen Group
201403	Warm Ltd	41046	employee 6	11/21/1980	1/9/2012		ORDER MANAGEMENT	30181036	1	DELIVERY COORDINATOR SUPERVISOR	MALE	SINGLE	9 LORONG PERMAI 1	TAMAN BUKIT GAMBIR,	GELUGOR	11700	CN	5,902	408	-	-	15	391	696	-	-	-	-	-	53	759	5,208													EMEA	Frozen Group
201403	Warm Ltd	41048	employee 7	5/4/1983	1/9/2012		ORDER MANAGEMENT	30181036	1	DELIVERY COORDINATOR	MALE	SINGLE	20-7-12A HILIR PAYA TERUBONG 1	TAMAN SERI SARI RELAU	BAYAN LEPAS, PENANG	11900	CN	4,208	408	-	-	15	150	510	-	-	-	-	-	53	603	3,941													EMEA	Frozen Group
201403	Warm Ltd	41139	employee 8	9/13/1984	1/9/2012		II & O SHIPPING & COMMERCE	30180038	1	OPERATIONS SUPERVISOR	MALE	MARRIED	19E KG PAYA SURI, SEMELING	BEDONG. KEDAH		8100	CN	6,304	-	-	-	15	390	696	-	-	-	-	-	53	759	5,203													EMEA	Frozen Group
201403	Warm Ltd	41140	employee 9	10/13/1985	1/9/2012		II & O SHIPPING & COMMERCE	30180038	1	DATA ASSOCIATE	MALE	SINGLE	BLK 11-10-11, LINTANG MACALLUM DUA	PENANG		10300	CN	4,781	-	-	-	15	160	527	-	-	-	-	-	53	623	4,078													EMEA	Frozen Group
201403	Warm Ltd	41141	employee 10	6/3/1978	1/9/2012		II & O SHIPPING & COMMERCE	30180038	1	OPERATIONS SUPERVISOR	MALE	MARRIED	10-11, PARK VIEW TOWER,	JALAN HARBOUR PLACE,	BUTTERWORTH, PENANG	12100	CN	6,304	-	-	-	15	390	696	-	-	-	-	-	53	759	5,203													EMEA	Frozen Group
201403	Warm Ltd	41142	employee 11	4/9/1987	1/9/2012		II & O SHIPPING & COMMERCE	30180038	1	DATA ASSOCIATE	FEMALE	SINGLE	93 JALAN 4,TAMAN GUAR PERAHU	BUKIT MERTAJAM	PULAU PINANG	14400	CN	4,781	-	-	-	15	160	527	-	-	-	-	-	53	623	4,078													EMEA	Frozen Group
201403	Warm Ltd	41143	employee 12	5/27/1984	1/9/2012		II & O SHIPPING & COMMERCE	30180038	1	DATA ASSOCIATE	MALE	SINGLE	361 JALAN JELUTONG	PENANG		11600	CN	5,050	-	-	-	15	190	557	-	-	-	-	-	53	658	4,288													EMEA	Frozen Group
201403	Warm Ltd	41144	employee 13	6/12/1980	1/9/2012		II & O SHIPPING & COMMERCE	30180038	1	DATA ASSOCIATE	FEMALE	SINGLE	NO. 1, LOT 232, KG SEMARIANG LOT	KUCHING	SARAWAK	93050	CN	4,807	-	-	-	15	163	530	-	-	-	-	-	53	626	4,098													EMEA	Frozen Group
201403	Warm Ltd	41145	employee 14	2/28/1987	1/9/2012		II & O SHIPPING & COMMERCE	30180038	1	DATA ASSOCIATE	FEMALE	SINGLE	NO. 1 SCOTLAND CLOSE	PENANG		10450	CN	4,807	-	-	-	15	163	530	-	-	-	-	-	53	626	4,098													EMEA	Frozen Group
201403	Warm Ltd	41264	employee 15	7/28/1984	2/8/2012		EDIT & DESIGN	30185326	1	IMAGE ARCHIVIST	FEMALE	SINGLE	39-13-31, KRYSTAL HEIGHT,	LORONG DELIMA 14, ISLAND GLADES,	GELUGOR, PENANG.	11700	CN	4,777	-	-	-	15	160	527	-	-	-	-	-	53	623	4,075													EMEA	Frozen Group
201403	Warm Ltd	41266	employee 16	12/25/1982	2/8/2012		ORDER MANAGEMENT	30181036	1	DELIVERY COORDINATOR	FEMALE	SINGLE	1-06, MELOR APARTMENT,	TAMAN MELOR,	BAGAN JERMAL, PENANG	12300	CN	-	-	-	-	-	-	-	-	-	-	-	-	-	-	-													EMEA	Frozen Group
201403	Warm Ltd	41267	employee 17	10/1/1968	2/8/2012		FINANCE	30180606	1	FINANCE DIRECTOR	FEMALE	MARRIED	33, PERSIARAN PANTAI JEREJAK 11,	SUNGAI NIBONG, PENANG.		11900	CN	24,572	-	-	-	15	4,980	2,703	-	-	-	-	-	53	2,949	16,874													EMEA	Frozen Group
201403	Warm Ltd	41361	employee 18	10/15/1980	2/20/2012		IT INFRASTRUCTURE	30181361	1	ETL DEVELOPER	MALE	MARRIED	1-7-6, THE SUMMER PLACE,	LEBUH SUNGAI PINANG 8,	JELUTONG, PENANG	11600	CN	3,908	-	-	-	15	87	432	-	-	-	-	-	53	510	3,374													EMEA	Frozen Group
201403	Warm Ltd	41388	employee 19	7/11/1980	3/5/2012		ORDER MANAGEMENT	30181036	1	DELIVERY COORDINATOR	FEMALE	MARRIED	18-16-21, TAMAN UTARA,	BATU UBAN,	PENANG.	11700	CN	-	-	-	-	-	-	-	-	-	-	-	-	-	-	-													EMEA	Frozen Group
201403	Warm Ltd	41411	employee 20	3/18/1978	3/5/2012	30/5/2014	HUMAN RESOURCES	30180908	1	TALENT ACQUISITION ACCOUNT MANAGER	FEMALE	SINGLE	2-G-1, JALAN HAJI AHMAD,	TAMAN PUSAKA,	PENANG	11600	CN	12,362	-	-	-	15	1,850	1,369	-	-	-	-	-	53	1,493	9,128													EMEA	Frozen Group
201403	Warm Ltd	41461	employee 21	12/12/1983	3/20/2012	30/5/2014	IT INFRASTRUCTURE	30181361	1	ETL DEVELOPER	MALE	SINGLE	75, LENGKOK SIAKAP 1,	SEBERANG JAYA,	PRAI, PENANG	13700	CN	3,466	-	-	-	15	29	382	-	-	-	-	-	53	451	3,041													EMEA	Frozen Group
201403	Warm Ltd	41486	employee 22	2/1/1980	3/26/2012	30/5/2014	ORDER MANAGEMENT	30181036	1	ORDER PROCESSING SPECIALIST	FEMALE	MARRIED	NO. 17, LORONG SINTAR INDAH 8,	TAMAN SINTAR INDAH,	NIBONG TEBAL	14300	CN	-	-	-	-	-	-	-	-	-	-	-	-	-	-	-													EMEA	Frozen Group
201403	Warm Ltd	41487	employee 23	2/22/1983	3/26/2012	30/5/2014	PRICING	30180978	1	PRICING ANALYST	FEMALE	MARRIED	2A-16-7, REGENCY HEIGHTS,	CANGKAT KENARI,	SG. ARA, PENANG	11900	CN	4,005	-	-	-	15	52	443	-	-	-	-	-	53	523	3,495													EMEA	Frozen Group
201404	Warm Ltd	40938	employee 1	2/27/1978	11/29/2011		HUMAN RESOURCES	30180835	1	RECEPTIONIST	FEMALE	MARRIED	37-2-1 VICTORIA HEIGHTS	HILIR PAYA TERUBONG 2	RELAU, PENANG	11900	CN	2,701	-	-	-	14	-	300	-	-	-	-	-	48	354	2,388													EMEA	Frozen Group
201404	Warm Ltd	40945	employee 2	10/31/1978	12/5/2011		CUSTOMER CARE	30180853	0.5	CUSTOMER CARE REPRESENTATIVE	FEMALE	MARRIED	NO. 9 SOLOK SG  BATU	TAMAN TELUK KUMBAR	BAYAN LEPAS , PENANG	11920	CN	4,091	-	-	-	15	60	451	-	-	-	-	-	53	534	3,564													EMEA	Frozen Group
201404	Warm Ltd	40946	employee 3	2/28/1981	12/5/2011		CUSTOMER CARE	30180853	1	CUSTOMER CARE REPRESENTATIVE	FEMALE	MARRIED	26 JALAN CONCORD 15	TANJONG BUNGAH	PULAU PINANG	11200	CN	4,091	-	-	-	15	60	451	-	-	-	-	-	53	534	3,564													EMEA	Frozen Group
201404	Warm Ltd	40947	employee 4	7/30/1974	12/5/2011		CUSTOMER CARE	30180853	0.5	CUSTOMER CARE REPRESENTATIVE	FEMALE	DIVORCED	1636 JALAN PADANG BANGGALI	TAMAN AIR TAWAR INDAH	BUTTERWORTH	13050	CN	4,618	-	-	-	15	163	510	-	-	-	-	-	53	603	3,930													EMEA	Frozen Group
201404	Warm Ltd	40954	employee 5	12/19/1981	12/5/2011		FINANCE	30180606	1	ACCOUNTANT	FEMALE	MARRIED	GRAND VIEW APARTMENT	31A-7-5 TANJUNG TOKONG	PENANG	10470	CN	4,019	-	-	-	15	51	445	-	-	-	-	-	53	525	3,507													EMEA	Frozen Group
201404	Warm Ltd	41046	employee 6	11/21/1980	1/9/2012		ORDER MANAGEMENT	30181036	1	DELIVERY COORDINATOR SUPERVISOR	MALE	SINGLE	9 LORONG PERMAI 1	TAMAN BUKIT GAMBIR,	GELUGOR	11700	CN	5,961	412	-	-	15	395	703	-	-	-	-	-	53	767	5,260													EMEA	Frozen Group
201404	Warm Ltd	41048	employee 7	5/4/1983	1/9/2012		ORDER MANAGEMENT	30181036	1	DELIVERY COORDINATOR	MALE	SINGLE	20-7-12A HILIR PAYA TERUBONG 1	TAMAN SERI SARI RELAU	BAYAN LEPAS, PENANG	11900	CN	4,250	412	-	-	15	151	515	-	-	-	-	-	53	609	3,981													EMEA	Frozen Group
201404	Warm Ltd	41139	employee 8	9/13/1984	1/9/2012		II & O SHIPPING & COMMERCE	30180038	1	OPERATIONS SUPERVISOR	MALE	MARRIED	19E KG PAYA SURI, SEMELING	BEDONG. KEDAH		8100	CN	6,367	-	-	-	15	394	703	-	-	-	-	-	53	767	5,255													EMEA	Frozen Group
201404	Warm Ltd	41140	employee 9	10/13/1985	1/9/2012		II & O SHIPPING & COMMERCE	30180038	1	DATA ASSOCIATE	MALE	SINGLE	BLK 11-10-11, LINTANG MACALLUM DUA	PENANG		10300	CN	4,828	-	-	-	15	162	533	-	-	-	-	-	53	630	4,119													EMEA	Frozen Group
201404	Warm Ltd	41141	employee 10	6/3/1978	1/9/2012		II & O SHIPPING & COMMERCE	30180038	1	OPERATIONS SUPERVISOR	MALE	MARRIED	10-11, PARK VIEW TOWER,	JALAN HARBOUR PLACE,	BUTTERWORTH, PENANG	12100	CN	6,367	-	-	-	15	394	703	-	-	-	-	-	53	767	5,255													EMEA	Frozen Group
201404	Warm Ltd	41142	employee 11	4/9/1987	1/9/2012		II & O SHIPPING & COMMERCE	30180038	1	DATA ASSOCIATE	FEMALE	SINGLE	93 JALAN 4,TAMAN GUAR PERAHU	BUKIT MERTAJAM	PULAU PINANG	14400	CN	4,828	-	-	-	15	162	533	-	-	-	-	-	53	630	4,119													EMEA	Frozen Group
201404	Warm Ltd	41143	employee 12	5/27/1984	1/9/2012		II & O SHIPPING & COMMERCE	30180038	1	DATA ASSOCIATE	MALE	SINGLE	361 JALAN JELUTONG	PENANG		11600	CN	5,100	-	-	-	15	192	563	-	-	-	-	-	53	665	4,331													EMEA	Frozen Group
201404	Warm Ltd	41144	employee 13	6/12/1980	1/9/2012		II & O SHIPPING & COMMERCE	30180038	1	DATA ASSOCIATE	FEMALE	SINGLE	NO. 1, LOT 232, KG SEMARIANG LOT	KUCHING	SARAWAK	93050	CN	4,855	-	-	-	15	165	536	-	-	-	-	-	53	633	4,139													EMEA	Frozen Group
201404	Warm Ltd	41145	employee 14	2/28/1987	1/9/2012		II & O SHIPPING & COMMERCE	30180038	1	DATA ASSOCIATE	FEMALE	SINGLE	NO. 1 SCOTLAND CLOSE	PENANG		10450	CN	4,855	-	-	-	15	165	536	-	-	-	-	-	53	633	4,139													EMEA	Frozen Group
201404	Warm Ltd	41264	employee 15	7/28/1984	2/8/2012		EDIT & DESIGN	30185326	1	IMAGE ARCHIVIST	FEMALE	SINGLE	39-13-31, KRYSTAL HEIGHT,	LORONG DELIMA 14, ISLAND GLADES,	GELUGOR, PENANG.	11700	CN	4,825	-	-	-	15	161	533	-	-	-	-	-	53	630	4,116													EMEA	Frozen Group
201404	Warm Ltd	41266	employee 16	12/25/1982	2/8/2012		ORDER MANAGEMENT	30181036	1	DELIVERY COORDINATOR	FEMALE	SINGLE	1-06, MELOR APARTMENT,	TAMAN MELOR,	BAGAN JERMAL, PENANG	12300	CN	-	-	-	-	-	-	-	-	-	-	-	-	-	-	-													EMEA	Frozen Group
201404	Warm Ltd	41267	employee 17	10/1/1968	2/8/2012		FINANCE	30180606	1	FINANCE DIRECTOR	FEMALE	MARRIED	33, PERSIARAN PANTAI JEREJAK 11,	SUNGAI NIBONG, PENANG.		11900	CN	24,818	-	-	-	15	5,030	2,730	-	-	-	-	-	53	2,979	17,043													EMEA	Frozen Group
201404	Warm Ltd	41361	employee 18	10/15/1980	2/20/2012		IT INFRASTRUCTURE	30181361	1	ETL DEVELOPER	MALE	MARRIED	1-7-6, THE SUMMER PLACE,	LEBUH SUNGAI PINANG 8,	JELUTONG, PENANG	11600	CN	3,947	-	-	-	15	88	436	-	-	-	-	-	53	515	3,408													EMEA	Frozen Group
201404	Warm Ltd	41388	employee 19	7/11/1980	3/5/2012		ORDER MANAGEMENT	30181036	1	DELIVERY COORDINATOR	FEMALE	MARRIED	18-16-21, TAMAN UTARA,	BATU UBAN,	PENANG.	11700	CN	-	-	-	-	-	-	-	-	-	-	-	-	-	-	-													EMEA	Frozen Group
201404	Warm Ltd	41411	employee 20	3/18/1978	3/5/2012	30/5/2014	HUMAN RESOURCES	30180908	1	TALENT ACQUISITION ACCOUNT MANAGER	FEMALE	SINGLE	2-G-1, JALAN HAJI AHMAD,	TAMAN PUSAKA,	PENANG	11600	CN	12,486	-	-	-	15	1,868	1,383	-	-	-	-	-	53	1,508	9,220													EMEA	Frozen Group
201404	Warm Ltd	41461	employee 21	12/12/1983	3/20/2012	30/5/2014	IT INFRASTRUCTURE	30181361	1	ETL DEVELOPER	MALE	SINGLE	75, LENGKOK SIAKAP 1,	SEBERANG JAYA,	PRAI, PENANG	13700	CN	3,500	-	-	-	15	29	385	-	-	-	-	-	53	455	3,071													EMEA	Frozen Group
201404	Warm Ltd	41486	employee 22	2/1/1980	3/26/2012	30/5/2014	ORDER MANAGEMENT	30181036	1	ORDER PROCESSING SPECIALIST	FEMALE	MARRIED	NO. 17, LORONG SINTAR INDAH 8,	TAMAN SINTAR INDAH,	NIBONG TEBAL	14300	CN	-	-	-	-	-	-	-	-	-	-	-	-	-	-	-													EMEA	Frozen Group
201404	Warm Ltd	41487	employee 23	2/22/1983	3/26/2012	30/5/2014	PRICING	30180978	1	PRICING ANALYST	FEMALE	MARRIED	2A-16-7, REGENCY HEIGHTS,	CANGKAT KENARI,	SG. ARA, PENANG	11900	CN	4,045	-	-	-	15	53	447	-	-	-	-	-	53	529	3,530													EMEA	Frozen Group
201405	Warm Ltd	40938	employee 1	2/27/1978	11/29/2011		HUMAN RESOURCES	30180835	1	RECEPTIONIST	FEMALE	MARRIED	37-2-1 VICTORIA HEIGHTS	HILIR PAYA TERUBONG 2	RELAU, PENANG	11900	CN	2,729	-	-	-	14	-	303	-	-	-	-	-	48	358	2,412													EMEA	Frozen Group
201405	Warm Ltd	40945	employee 2	10/31/1978	12/5/2011		CUSTOMER CARE	30180853	0.5	CUSTOMER CARE REPRESENTATIVE	FEMALE	MARRIED	NO. 9 SOLOK SG  BATU	TAMAN TELUK KUMBAR	BAYAN LEPAS , PENANG	11920	CN	4,132	-	-	-	15	61	456	-	-	-	-	-	54	539	3,600													EMEA	Frozen Group
201405	Warm Ltd	40946	employee 3	2/28/1981	12/5/2011		CUSTOMER CARE	30180853	1	CUSTOMER CARE REPRESENTATIVE	FEMALE	MARRIED	26 JALAN CONCORD 15	TANJONG BUNGAH	PULAU PINANG	11200	CN	4,132	-	-	-	15	61	456	-	-	-	-	-	54	539	3,600													EMEA	Frozen Group
201405	Warm Ltd	40947	employee 4	7/30/1974	12/5/2011		CUSTOMER CARE	30180853	0.5	CUSTOMER CARE REPRESENTATIVE	FEMALE	DIVORCED	1636 JALAN PADANG BANGGALI	TAMAN AIR TAWAR INDAH	BUTTERWORTH	13050	CN	4,664	-	-	-	15	165	515	-	-	-	-	-	54	609	3,969													EMEA	Frozen Group
201405	Warm Ltd	40954	employee 5	12/19/1981	12/5/2011		FINANCE	30180606	1	ACCOUNTANT	FEMALE	MARRIED	GRAND VIEW APARTMENT	31A-7-5 TANJUNG TOKONG	PENANG	10470	CN	4,059	-	-	-	15	52	450	-	-	-	-	-	54	531	3,542													EMEA	Frozen Group
201405	Warm Ltd	41046	employee 6	11/21/1980	1/9/2012		ORDER MANAGEMENT	30181036	1	DELIVERY COORDINATOR SUPERVISOR	MALE	SINGLE	9 LORONG PERMAI 1	TAMAN BUKIT GAMBIR,	GELUGOR	11700	CN	6,020	416	-	-	15	399	710	-	-	-	-	-	54	774	5,312													EMEA	Frozen Group
201405	Warm Ltd	41048	employee 7	5/4/1983	1/9/2012		ORDER MANAGEMENT	30181036	1	DELIVERY COORDINATOR	MALE	SINGLE	20-7-12A HILIR PAYA TERUBONG 1	TAMAN SERI SARI RELAU	BAYAN LEPAS, PENANG	11900	CN	4,292	416	-	-	15	153	520	-	-	-	-	-	54	615	4,020													EMEA	Frozen Group
201405	Warm Ltd	41139	employee 8	9/13/1984	1/9/2012		II & O SHIPPING & COMMERCE	30180038	1	OPERATIONS SUPERVISOR	MALE	MARRIED	19E KG PAYA SURI, SEMELING	BEDONG. KEDAH		8100	CN	6,431	-	-	-	15	398	710	-	-	-	-	-	54	774	5,308													EMEA	Frozen Group
201405	Warm Ltd	41140	employee 9	10/13/1985	1/9/2012		II & O SHIPPING & COMMERCE	30180038	1	DATA ASSOCIATE	MALE	SINGLE	BLK 11-10-11, LINTANG MACALLUM DUA	PENANG		10300	CN	4,877	-	-	-	15	163	538	-	-	-	-	-	54	636	4,160													EMEA	Frozen Group
201405	Warm Ltd	41141	employee 10	6/3/1978	1/9/2012		II & O SHIPPING & COMMERCE	30180038	1	OPERATIONS SUPERVISOR	MALE	MARRIED	10-11, PARK VIEW TOWER,	JALAN HARBOUR PLACE,	BUTTERWORTH, PENANG	12100	CN	6,431	-	-	-	15	398	710	-	-	-	-	-	54	774	5,308													EMEA	Frozen Group
201405	Warm Ltd	41142	employee 11	4/9/1987	1/9/2012		II & O SHIPPING & COMMERCE	30180038	1	DATA ASSOCIATE	FEMALE	SINGLE	93 JALAN 4,TAMAN GUAR PERAHU	BUKIT MERTAJAM	PULAU PINANG	14400	CN	4,877	-	-	-	15	163	538	-	-	-	-	-	54	636	4,160													EMEA	Frozen Group
201405	Warm Ltd	41143	employee 12	5/27/1984	1/9/2012		II & O SHIPPING & COMMERCE	30180038	1	DATA ASSOCIATE	MALE	SINGLE	361 JALAN JELUTONG	PENANG		11600	CN	5,151	-	-	-	15	194	568	-	-	-	-	-	54	671	4,374													EMEA	Frozen Group
201405	Warm Ltd	41144	employee 13	6/12/1980	1/9/2012		II & O SHIPPING & COMMERCE	30180038	1	DATA ASSOCIATE	FEMALE	SINGLE	NO. 1, LOT 232, KG SEMARIANG LOT	KUCHING	SARAWAK	93050	CN	4,903	-	-	-	15	166	541	-	-	-	-	-	54	639	4,181													EMEA	Frozen Group
201405	Warm Ltd	41145	employee 14	2/28/1987	1/9/2012		II & O SHIPPING & COMMERCE	30180038	1	DATA ASSOCIATE	FEMALE	SINGLE	NO. 1 SCOTLAND CLOSE	PENANG		10450	CN	4,903	-	-	-	15	166	541	-	-	-	-	-	54	639	4,181													EMEA	Frozen Group
201405	Warm Ltd	41264	employee 15	7/28/1984	2/8/2012		EDIT & DESIGN	30185326	1	IMAGE ARCHIVIST	FEMALE	SINGLE	39-13-31, KRYSTAL HEIGHT,	LORONG DELIMA 14, ISLAND GLADES,	GELUGOR, PENANG.	11700	CN	4,873	-	-	-	15	163	538	-	-	-	-	-	54	636	4,157													EMEA	Frozen Group
201405	Warm Ltd	41266	employee 16	12/25/1982	2/8/2012		ORDER MANAGEMENT	30181036	1	DELIVERY COORDINATOR	FEMALE	SINGLE	1-06, MELOR APARTMENT,	TAMAN MELOR,	BAGAN JERMAL, PENANG	12300	CN	-	-	-	-	-	-	-	-	-	-	-	-	-	-	-													EMEA	Frozen Group
201405	Warm Ltd	41267	employee 17	10/1/1968	2/8/2012		FINANCE	30180606	1	FINANCE DIRECTOR	FEMALE	MARRIED	33, PERSIARAN PANTAI JEREJAK 11,	SUNGAI NIBONG, PENANG.		11900	CN	25,066	-	-	-	15	5,080	2,758	-	-	-	-	-	54	3,008	17,213													EMEA	Frozen Group
201405	Warm Ltd	41361	employee 18	10/15/1980	2/20/2012		IT INFRASTRUCTURE	30181361	1	ETL DEVELOPER	MALE	MARRIED	1-7-6, THE SUMMER PLACE,	LEBUH SUNGAI PINANG 8,	JELUTONG, PENANG	11600	CN	3,987	-	-	-	15	89	440	-	-	-	-	-	54	520	3,442													EMEA	Frozen Group
201405	Warm Ltd	41388	employee 19	7/11/1980	3/5/2012		ORDER MANAGEMENT	30181036	1	DELIVERY COORDINATOR	FEMALE	MARRIED	18-16-21, TAMAN UTARA,	BATU UBAN,	PENANG.	11700	CN	-	-	-	-	-	-	-	-	-	-	-	-	-	-	-													EMEA	Frozen Group
201405	Warm Ltd	41411	employee 20	3/18/1978	3/5/2012	30/5/2014	HUMAN RESOURCES	30180908	1	TALENT ACQUISITION ACCOUNT MANAGER	FEMALE	SINGLE	2-G-1, JALAN HAJI AHMAD,	TAMAN PUSAKA,	PENANG	11600	CN	12,611	-	-	-	15	1,887	1,397	-	-	-	-	-	54	1,523	9,312													EMEA	Frozen Group
201405	Warm Ltd	41461	employee 21	12/12/1983	3/20/2012	30/5/2014	IT INFRASTRUCTURE	30181361	1	ETL DEVELOPER	MALE	SINGLE	75, LENGKOK SIAKAP 1,	SEBERANG JAYA,	PRAI, PENANG	13700	CN	3,535	-	-	-	15	29	389	-	-	-	-	-	54	460	3,102													EMEA	Frozen Group
201405	Warm Ltd	41486	employee 22	2/1/1980	3/26/2012	30/5/2014	ORDER MANAGEMENT	30181036	1	ORDER PROCESSING SPECIALIST	FEMALE	MARRIED	NO. 17, LORONG SINTAR INDAH 8,	TAMAN SINTAR INDAH,	NIBONG TEBAL	14300	CN	-	-	-	-	-	-	-	-	-	-	-	-	-	-	-													EMEA	Frozen Group
201405	Warm Ltd	41487	employee 23	2/22/1983	3/26/2012	30/5/2014	PRICING	30180978	1	PRICING ANALYST	FEMALE	MARRIED	2A-16-7, REGENCY HEIGHTS,	CANGKAT KENARI,	SG. ARA, PENANG	11900	CN	4,086	-	-	-	15	53	452	-	-	-	-	-	54	534	3,565													EMEA	Frozen Group
201406	Warm Ltd	40938	employee 1	2/27/1978	11/29/2011		HUMAN RESOURCES	30180835	1	RECEPTIONIST	FEMALE	MARRIED	37-2-1 VICTORIA HEIGHTS	HILIR PAYA TERUBONG 2	RELAU, PENANG	11900	CN	50,000	-	-	-	14	-	306	-	-	-	-	-	49	362	49,680													EMEA	Frozen Group
201406	Warm Ltd	40945	employee 2	10/31/1978	12/5/2011		CUSTOMER CARE	30180853	0.5	CUSTOMER CARE REPRESENTATIVE	FEMALE	MARRIED	NO. 9 SOLOK SG  BATU	TAMAN TELUK KUMBAR	BAYAN LEPAS , PENANG	11920	CN	4,173	-	-	-	16	62	460	-	-	-	-	-	54	544	3,636													EMEA	Frozen Group
201406	Warm Ltd	40946	employee 3	2/28/1981	12/5/2011		CUSTOMER CARE	30180853	1	CUSTOMER CARE REPRESENTATIVE	FEMALE	MARRIED	26 JALAN CONCORD 15	TANJONG BUNGAH	PULAU PINANG	11200	CN	4,173	-	-	-	16	62	460	-	-	-	-	-	54	544	3,636													EMEA	Frozen Group
201406	Warm Ltd	40947	employee 4	7/30/1974	12/5/2011		CUSTOMER CARE	30180853	0.5	CUSTOMER CARE REPRESENTATIVE	FEMALE	DIVORCED	1636 JALAN PADANG BANGGALI	TAMAN AIR TAWAR INDAH	BUTTERWORTH	13050	CN	4,711	-	-	-	16	166	520	-	-	-	-	-	54	615	4,009													EMEA	Frozen Group
201406	Warm Ltd	40954	employee 5	12/19/1981	12/5/2011		FINANCE	30180606	1	ACCOUNTANT	FEMALE	MARRIED	GRAND VIEW APARTMENT	31A-7-5 TANJUNG TOKONG	PENANG	10470	CN	4,100	-	-	-	16	52	454	-	-	-	-	-	54	536	3,578													EMEA	Frozen Group
201406	Warm Ltd	41046	employee 6	11/21/1980	1/9/2012		ORDER MANAGEMENT	30181036	1	DELIVERY COORDINATOR SUPERVISOR	MALE	SINGLE	9 LORONG PERMAI 1	TAMAN BUKIT GAMBIR,	GELUGOR	11700	CN	6,081	420	-	-	16	403	717	-	-	-	-	-	54	782	5,366													EMEA	Frozen Group
201406	Warm Ltd	41048	employee 7	5/4/1983	1/9/2012		ORDER MANAGEMENT	30181036	1	DELIVERY COORDINATOR	MALE	SINGLE	20-7-12A HILIR PAYA TERUBONG 1	TAMAN SERI SARI RELAU	BAYAN LEPAS, PENANG	11900	CN	4,335	420	-	-	16	154	526	-	-	-	-	-	54	621	4,061													EMEA	Frozen Group
201406	Warm Ltd	41139	employee 8	9/13/1984	1/9/2012		II & O SHIPPING & COMMERCE	30180038	1	OPERATIONS SUPERVISOR	MALE	MARRIED	19E KG PAYA SURI, SEMELING	BEDONG. KEDAH		8100	CN	6,495	-	-	-	16	402	717	-	-	-	-	-	54	782	5,361													EMEA	Frozen Group
201406	Warm Ltd	41140	employee 9	10/13/1985	1/9/2012		II & O SHIPPING & COMMERCE	30180038	1	DATA ASSOCIATE	MALE	SINGLE	BLK 11-10-11, LINTANG MACALLUM DUA	PENANG		10300	CN	4,925	-	-	-	16	165	543	-	-	-	-	-	54	642	4,201													EMEA	Frozen Group
201406	Warm Ltd	41141	employee 10	6/3/1978	1/9/2012		II & O SHIPPING & COMMERCE	30180038	1	OPERATIONS SUPERVISOR	MALE	MARRIED	10-11, PARK VIEW TOWER,	JALAN HARBOUR PLACE,	BUTTERWORTH, PENANG	12100	CN	6,495	-	-	-	16	402	717	-	-	-	-	-	54	782	5,361													EMEA	Frozen Group
201406	Warm Ltd	41142	employee 11	4/9/1987	1/9/2012		II & O SHIPPING & COMMERCE	30180038	1	DATA ASSOCIATE	FEMALE	SINGLE	93 JALAN 4,TAMAN GUAR PERAHU	BUKIT MERTAJAM	PULAU PINANG	14400	CN	4,925	-	-	-	16	165	543	-	-	-	-	-	54	642	4,201													EMEA	Frozen Group
201406	Warm Ltd	41143	employee 12	5/27/1984	1/9/2012		II & O SHIPPING & COMMERCE	30180038	1	DATA ASSOCIATE	MALE	SINGLE	361 JALAN JELUTONG	PENANG		11600	CN	5,203	-	-	-	16	196	574	-	-	-	-	-	54	678	4,418													EMEA	Frozen Group
201406	Warm Ltd	41145	employee 14	2/28/1987	1/9/2012		II & O SHIPPING & COMMERCE	30180038	1	DATA ASSOCIATE	FEMALE	SINGLE	NO. 1 SCOTLAND CLOSE	PENANG		10450	CN	4,952	-	-	-	16	168	547	-	-	-	-	-	54	645	4,222													EMEA	Frozen Group
201406	Warm Ltd	41264	employee 15	7/28/1984	2/8/2012		EDIT & DESIGN	30185326	1	IMAGE ARCHIVIST	FEMALE	SINGLE	39-13-31, KRYSTAL HEIGHT,	LORONG DELIMA 14, ISLAND GLADES,	GELUGOR, PENANG.	11700	CN	4,922	-	-	-	16	165	543	-	-	-	-	-	54	642	4,198													EMEA	Frozen Group
201406	Warm Ltd	41266	employee 16	12/25/1982	2/8/2012		ORDER MANAGEMENT	30181036	1	DELIVERY COORDINATOR	FEMALE	SINGLE	1-06, MELOR APARTMENT,	TAMAN MELOR,	BAGAN JERMAL, PENANG	12300	CN	-	-	-	-	-	-	-	-	-	-	-	-	-	-	-													EMEA	Frozen Group
201406	Warm Ltd	41267	employee 17	10/1/1968	2/8/2012		FINANCE	30180606	1	FINANCE DIRECTOR	FEMALE	MARRIED	33, PERSIARAN PANTAI JEREJAK 11,	SUNGAI NIBONG, PENANG.		11900	CN	25,317	-	-	-	16	5,131	2,785	-	-	-	-	-	54	3,039	17,385													EMEA	Frozen Group
201406	Warm Ltd	41361	employee 18	10/15/1980	2/20/2012		IT INFRASTRUCTURE	30181361	1	ETL DEVELOPER	MALE	MARRIED	1-7-6, THE SUMMER PLACE,	LEBUH SUNGAI PINANG 8,	JELUTONG, PENANG	11600	CN	4,027	-	-	-	16	90	445	-	-	-	-	-	54	526	3,476													EMEA	Frozen Group
201406	Warm Ltd	41388	employee 19	7/11/1980	3/5/2012		ORDER MANAGEMENT	30181036	1	DELIVERY COORDINATOR	FEMALE	MARRIED	18-16-21, TAMAN UTARA,	BATU UBAN,	PENANG.	11700	CN	-	-	-	-	-	-	-	-	-	-	-	-	-	-	-													EMEA	Frozen Group
